simulation/qsim/bcd_decoder.msim.vcd
$comment
	File created using the following command:
		vcd file bcd_decoder.msim.vcd -direction
$end
$date
	Sun Nov 03 12:43:33 2024
$end
$version
	ModelSim Version 10.1d
$end
$timescale
	1ps
$end
$scope module bcd_decoder_vlg_vec_tst $end
$var reg 1 ! entrada1 $end
$var reg 1 " entrada2 $end
$var reg 1 # entrada3 $end
$var reg 1 $ entrada4 $end
$var wire 1 % saida1 $end
$var wire 1 & saida2 $end
$var wire 1 ' saida3 $end
$var wire 1 ( saida4 $end
$var wire 1 ) saida5 $end
$var wire 1 * saida6 $end
$var wire 1 + saida7 $end
$var wire 1 , sampler $end
$scope module i1 $end
$var wire 1 - gnd $end
$var wire 1 . vcc $end
$var wire 1 / unknown $end
$var tri1 1 0 devclrn $end
$var tri1 1 1 devpor $end
$var tri1 1 2 devoe $end
$var wire 1 3 entrada4~combout $end
$var wire 1 4 entrada1~combout $end
$var wire 1 5 entrada2~combout $end
$var wire 1 6 entrada3~combout $end
$var wire 1 7 saida1~0_combout $end
$var wire 1 8 saida2~0_combout $end
$var wire 1 9 saida3~0_combout $end
$var wire 1 : saida4~0_combout $end
$var wire 1 ; saida5~0_combout $end
$var wire 1 < saida6~0_combout $end
$var wire 1 = saida7~0_combout $end
$upscope $end
$upscope $end
$enddefinitions $end
#0
$dumpvars
0!
0"
0#
0$
0%
0&
0'
0(
0)
0*
1+
x,
0-
1.
x/
10
11
12
03
04
05
06
17
18
09
0:
0;
0<
1=
$end
#5000
1!
14
0,
0=
0+
#10000
0!
04
1,
1=
1+
#15000
1!
14
0,
0=
0+
#20000
1"
0!
15
04
1,
1;
1:
07
1)
1(
1%
#25000
1!
14
0,
0;
0:
17
0)
0(
0%
#30000
1#
0!
16
04
1,
08
1&
#35000
1!
14
0,
18
0&
#40000
0"
0!
05
04
1,
1<
1:
19
1*
1(
1'
#45000
1!
14
0,
0<
0:
09
0*
0(
0'
#50000
1$
0!
13
04
1,
1<
1;
1:
1*
1)
1(
#55000
1!
14
0,
0<
0;
0:
0*
0)
0(
#60000
0#
1"
0!
06
15
04
1,
1;
08
1)
1&
#65000
1!
14
0,
0;
18
0)
0&
#70000
0!
04
1,
1;
08
1)
1&
#75000
1!
14
0,
0;
18
0)
0&
#80000
0"
0!
05
04
1,
1=
1<
1;
1:
07
1+
1*
1)
1(
1%
#85000
1!
14
0,
0=
0<
17
0+
0*
0%
#90000
1#
0!
16
04
1,
1<
1*
#95000
1!
14
0,
0<
0;
0:
0*
0)
0(
#100000
0$
1"
0!
03
15
04
1,
08
1&
#105000
1!
14
0,
18
0&
#110000
0!
04
1,
08
1&
#115000
1!
14
0,
18
0&
#120000
0#
0"
0!
06
05
04
1,
1=
1+
#125000
1!
14
0,
0=
0+
#130000
0!
04
1,
1=
1+
#135000
1!
14
0,
0=
0+
#140000
1"
0!
15
04
1,
1;
1:
07
1)
1(
1%
#145000
1!
14
0,
0;
0:
17
0)
0(
0%
#150000
1$
1#
0!
13
16
04
1,
1=
1<
1;
1+
1*
1)
#155000
1!
14
0,
0=
0<
0;
0+
0*
0)
#160000
0"
0!
05
04
1,
1<
1;
1:
1*
1)
1(
#165000
1!
14
0,
0<
0;
0:
0*
0)
0(
#170000
0!
04
1,
1<
1;
1:
1*
1)
1(
#175000
1!
14
0,
0<
0;
0:
0*
0)
0(
#180000
0#
1"
0!
06
15
04
1,
1;
08
1)
1&
#185000
1!
14
0,
0;
18
0)
0&
#190000
0!
04
1,
1;
08
1)
1&
#195000
1!
14
0,
0;
18
0)
0&
#200000
0$
0"
0!
03
05
04
1,
1=
1+
#205000
1!
14
0,
0=
0+
#210000
1#
0!
16
04
1,
1<
1:
19
1*
1(
1'
#215000
1!
14
0,
0<
0:
09
0*
0(
0'
#220000
1"
0!
15
04
1,
08
1&
#225000
1!
14
0,
18
0&
#230000
0!
04
1,
08
1&
#235000
1!
14
0,
18
0&
#240000
0#
0"
0!
06
05
04
1,
1=
1+
#245000
1!
14
0,
0=
0+
#250000
1$
0!
13
04
1,
1=
1<
1;
1:
07
1+
1*
1)
1(
1%
#255000
1!
14
0,
0=
0<
17
0+
0*
0%
#260000
1"
0!
15
04
1,
0:
08
0(
1&
#265000
1!
14
0,
0;
18
0)
0&
#270000
1#
0!
16
04
1,
1=
1<
1;
1+
1*
1)
#275000
1!
14
0,
0=
0<
0;
0+
0*
0)
#280000
0"
0!
05
04
1,
1<
1;
1:
1*
1)
1(
#285000
1!
14
0,
0<
0;
0:
0*
0)
0(
#290000
0!
04
1,
1<
1;
1:
1*
1)
1(
#295000
1!
14
0,
0<
0;
0:
0*
0)
0(
#300000
0$
0#
1"
0!
03
06
15
04
1,
1;
1:
07
1)
1(
1%
#305000
1!
14
0,
0;
0:
17
0)
0(
0%
#310000
0!
04
1,
1;
1:
07
1)
1(
1%
#315000
1!
14
0,
0;
0:
17
0)
0(
0%
#320000
0"
0!
05
04
1,
1=
1+
#325000
1!
14
0,
0=
0+
#330000
1#
0!
16
04
1,
1<
1:
19
1*
1(
1'
#335000
1!
14
0,
0<
0:
09
0*
0(
0'
#340000
1"
0!
15
04
1,
08
1&
#345000
1!
14
0,
18
0&
#350000
1$
0!
13
04
1,
1=
1<
1;
1+
1*
1)
#355000
1!
14
0,
0=
0<
0;
0+
0*
0)
#360000
0#
0"
0!
06
05
04
1,
1=
1<
1;
1:
07
1+
1*
1)
1(
1%
#365000
1!
14
0,
0=
0<
17
0+
0*
0%
#370000
0!
04
1,
1=
1<
07
1+
1*
1%
#375000
1!
14
0,
0=
0<
17
0+
0*
0%
#380000
1"
0!
15
04
1,
0:
08
0(
1&
#385000
1!
14
0,
0;
18
0)
0&
#390000
1#
0!
16
04
1,
1=
1<
1;
1+
1*
1)
#395000
1!
14
0,
0=
0<
0;
0+
0*
0)
#400000
0$
0"
0!
03
05
04
1,
1<
1:
19
1*
1(
1'
#405000
1!
14
0,
0<
0:
09
0*
0(
0'
#410000
0!
04
1,
1<
1:
19
1*
1(
1'
#415000
1!
14
0,
0<
0:
09
0*
0(
0'
#420000
0#
1"
0!
06
15
04
1,
1;
1:
07
1)
1(
1%
#425000
1!
14
0,
0;
0:
17
0)
0(
0%
#430000
0!
04
1,
1;
1:
07
1)
1(
1%
#435000
1!
14
0,
0;
0:
17
0)
0(
0%
#440000
0"
0!
05
04
1,
1=
1+
#445000
1!
14
0,
0=
0+
#450000
1$
1#
0!
13
16
04
1,
1<
1;
1:
1*
1)
1(
#455000
1!
14
0,
0<
0;
0:
0*
0)
0(
#460000
1"
0!
15
04
1,
1=
1<
1;
1+
1*
1)
#465000
1!
14
0,
0=
0<
0;
0+
0*
0)
#470000
0!
04
1,
1=
1<
1;
1+
1*
1)
#475000
1!
14
0,
0=
0<
0;
0+
0*
0)
#480000
0#
0"
0!
06
05
04
1,
1=
1<
1;
1:
07
1+
1*
1)
1(
1%
#485000
1!
14
0,
0=
0<
17
0+
0*
0%
#490000
0!
04
1,
1=
1<
07
1+
1*
1%
#495000
1!
14
0,
0=
0<
17
0+
0*
0%
#500000
0$
1"
0!
03
15
04
1,
07
1%
#505000
1!
14
0,
0;
0:
17
0)
0(
0%
#510000
1#
0!
16
04
1,
08
1&
#515000
1!
14
0,
18
0&
#520000
0"
0!
05
04
1,
1<
1:
19
1*
1(
1'
#525000
1!
14
0,
0<
0:
09
0*
0(
0'
#530000
0!
04
1,
1<
1:
19
1*
1(
1'
#535000
1!
14
0,
0<
0:
09
0*
0(
0'
#540000
0#
1"
0!
06
15
04
1,
1;
1:
07
1)
1(
1%
#545000
1!
14
0,
0;
0:
17
0)
0(
0%
#550000
1$
0!
13
04
1,
1;
08
1)
1&
#555000
1!
14
0,
0;
18
0)
0&
#560000
0"
0!
05
04
1,
1=
1<
1;
1:
07
1+
1*
1)
1(
1%
#565000
1!
14
0,
0=
0<
17
0+
0*
0%
#570000
1#
0!
16
04
1,
1<
1*
#575000
1!
14
0,
0<
0;
0:
0*
0)
0(
#580000
1"
0!
15
04
1,
1=
1<
1;
1+
1*
1)
#585000
1!
14
0,
0=
0<
0;
0+
0*
0)
#590000
0!
04
1,
1=
1<
1;
1+
1*
1)
#595000
1!
14
0,
0=
0<
0;
0+
0*
0)
#600000
0$
0#
0"
0!
03
06
05
04
1,
1=
1+
#605000
1!
14
0,
0=
0+
#610000
0!
04
1,
1=
1+
#615000
1!
14
0,
0=
0+
#620000
1"
0!
15
04
1,
1;
1:
07
1)
1(
1%
#625000
1!
14
0,
0;
0:
17
0)
0(
0%
#630000
1#
0!
16
04
1,
08
1&
#635000
1!
14
0,
18
0&
#640000
0"
0!
05
04
1,
1<
1:
19
1*
1(
1'
#645000
1!
14
0,
0<
0:
09
0*
0(
0'
#650000
1$
0!
13
04
1,
1<
1;
1:
1*
1)
1(
#655000
1!
14
0,
0<
0;
0:
0*
0)
0(
#660000
0#
1"
0!
06
15
04
1,
1;
08
1)
1&
#665000
1!
14
0,
0;
18
0)
0&
#670000
0!
04
1,
1;
08
1)
1&
#675000
1!
14
0,
0;
18
0)
0&
#680000
0"
0!
05
04
1,
1=
1<
1;
1:
07
1+
1*
1)
1(
1%
#685000
1!
14
0,
0=
0<
17
0+
0*
0%
#690000
1#
0!
16
04
1,
1<
1*
#695000
1!
14
0,
0<
0;
0:
0*
0)
0(
#700000
0$
1"
0!
03
15
04
1,
08
1&
#705000
1!
14
0,
18
0&
#710000
0!
04
1,
08
1&
#715000
1!
14
0,
18
0&
#720000
0#
0"
0!
06
05
04
1,
1=
1+
#725000
1!
14
0,
0=
0+
#730000
0!
04
1,
1=
1+
#735000
1!
14
0,
0=
0+
#740000
1"
0!
15
04
1,
1;
1:
07
1)
1(
1%
#745000
1!
14
0,
0;
0:
17
0)
0(
0%
#750000
1$
1#
0!
13
16
04
1,
1=
1<
1;
1+
1*
1)
#755000
1!
14
0,
0=
0<
0;
0+
0*
0)
#760000
0"
0!
05
04
1,
1<
1;
1:
1*
1)
1(
#765000
1!
14
0,
0<
0;
0:
0*
0)
0(
#770000
0!
04
1,
1<
1;
1:
1*
1)
1(
#775000
1!
14
0,
0<
0;
0:
0*
0)
0(
#780000
0#
1"
0!
06
15
04
1,
1;
08
1)
1&
#785000
1!
14
0,
0;
18
0)
0&
#790000
0!
04
1,
1;
08
1)
1&
#795000
1!
14
0,
0;
18
0)
0&
#800000
0$
0"
0!
03
05
04
1,
1=
1+
#805000
1!
14
0,
0=
0+
#810000
1#
0!
16
04
1,
1<
1:
19
1*
1(
1'
#815000
1!
14
0,
0<
0:
09
0*
0(
0'
#820000
1"
0!
15
04
1,
08
1&
#825000
1!
14
0,
18
0&
#830000
0!
04
1,
08
1&
#835000
1!
14
0,
18
0&
#840000
0#
0"
0!
06
05
04
1,
1=
1+
#845000
1!
14
0,
0=
0+
#850000
1$
0!
13
04
1,
1=
1<
1;
1:
07
1+
1*
1)
1(
1%
#855000
1!
14
0,
0=
0<
17
0+
0*
0%
#860000
1"
0!
15
04
1,
0:
08
0(
1&
#865000
1!
14
0,
0;
18
0)
0&
#870000
1#
0!
16
04
1,
1=
1<
1;
1+
1*
1)
#875000
1!
14
0,
0=
0<
0;
0+
0*
0)
#880000
0"
0!
05
04
1,
1<
1;
1:
1*
1)
1(
#885000
1!
14
0,
0<
0;
0:
0*
0)
0(
#890000
0!
04
1,
1<
1;
1:
1*
1)
1(
#895000
1!
14
0,
0<
0;
0:
0*
0)
0(
#900000
0$
0#
1"
0!
03
06
15
04
1,
1;
1:
07
1)
1(
1%
#905000
1!
14
0,
0;
0:
17
0)
0(
0%
#910000
0!
04
1,
1;
1:
07
1)
1(
1%
#915000
1!
14
0,
0;
0:
17
0)
0(
0%
#920000
0"
0!
05
04
1,
1=
1+
#925000
1!
14
0,
0=
0+
#930000
1#
0!
16
04
1,
1<
1:
19
1*
1(
1'
#935000
1!
14
0,
0<
0:
09
0*
0(
0'
#940000
1"
0!
15
04
1,
08
1&
#945000
1!
14
0,
18
0&
#950000
1$
0!
13
04
1,
1=
1<
1;
1+
1*
1)
#955000
1!
14
0,
0=
0<
0;
0+
0*
0)
#960000
0#
0"
0!
06
05
04
1,
1=
1<
1;
1:
07
1+
1*
1)
1(
1%
#965000
1!
14
0,
0=
0<
17
0+
0*
0%
#970000
0!
04
1,
1=
1<
07
1+
1*
1%
#975000
1!
14
0,
0=
0<
17
0+
0*
0%
#980000
1"
0!
15
04
1,
0:
08
0(
1&
#985000
1!
14
0,
0;
18
0)
0&
#990000
1#
0!
16
04
1,
1=
1<
1;
1+
1*
1)
#995000
1!
14
0,
0=
0<
0;
0+
0*
0)
